1 46 356 0
3 10 356 0
4 320 623 0
11 13 332 0
13 23 356 0
15 13 345 0
27 145 464 0
28 168 501 0
29 9 324 0
35 26 346 0
37 16 355 0
54 19 330 0
55 44 380 0
68 9 352 0
83 8 344 0
84 21 350 0
87 37 368 0
97 24 351 0
10 359 951 3
23 757 1207 3
24 452 1176 3
30 566 1123 3
34 1469 2054 3
36 203 822 3
38 301 766 3
46 291 835 3
48 898 1488 3
57 463 1027 3
59 1505 2300 3
64 654 1105 3
70 471 1022 3
76 341 931 3
77 230 898 3
85 245 840 3
86 262 925 3
93 263 783 3
95 710 1182 3
17 131 162 7
21 669 696 7
49 209 237 7
61 8 35 7
72 31 65 7
73 432 458 7
74 84 118 7
91 220 244 7
99 138 167 7
17 387 519 8
21 823 941 8
26 6 116 8
31 84 217 8
32 254 363 8
39 16 111 8
40 16 124 8
42 29 156 8
49 290 380 8
52 3 118 8
56 342 441 8
61 365 488 8
65 101 191 8
73 523 623 8
78 3 93 8
91 554 663 8
92 8 100 8
98 11 95 8
100 17 111 8
36 306 594 9
59 863 1223 9
76 336 673 9
1 267 333 10
3 253 325 10
4 517 586 10
5 676 740 10
6 196 281 10
7 647 723 10
8 193 259 10
10 854 932 10
11 229 300 10
13 255 335 10
15 255 326 10
18 1107 1178 10
19 225 303 10
23 1111 1188 10
24 1077 1163 10
27 361 429 10
28 386 457 10
29 221 304 10
30 1027 1096 10
34 1959 2028 10
35 236 303 10
36 728 813 10
37 251 321 10
38 670 748 10
44 645 734 10
46 740 816 10
48 1379 1473 10
54 230 307 10
55 285 350 10
57 947 1020 10
59 1331 1429 10
63 632 725 10
64 1009 1086 10
68 248 320 10
69 231 310 10
70 927 1003 10
71 165 235 10
76 839 917 10
77 801 878 10
79 495 575 10
80 973 1040 10
82 884 956 10
83 228 293 10
84 252 331 10
85 747 819 10
86 826 897 10
87 272 351 10
93 688 779 10
95 1087 1155 10
97 238 308 10
13 23 155 11
15 2 135 11
27 145 261 11
28 167 289 11
68 16 158 11
87 45 165 11
18 438 531 12
51 278 372 12
59 1756 1832 12
80 432 533 12
18 534 742 13
24 645 855 13
80 542 754 13
24 278 409 25
59 1492 1609 25
75 59 170 25
86 68 185 25
95 153 265 25
2 123 421 34
17 299 627 34
56 315 580 34
61 279 609 34
72 210 535 34
73 432 725 34
74 60 396 34
91 468 798 34
99 142 446 34
