
 
    Input File:        tests/data/setB/proteins.blasted

 
    Output File:        tests/data/setB/proteins.cl
Segmenti locali letti : 1
Segmenti locali letti : 1
Segmenti locali letti : 1
Segmenti locali letti : 1
Segmenti locali letti : 1
Segmenti locali letti : 1
Segmenti locali letti : 2
Segmenti locali letti : 2
Segmenti locali letti : 1
Segmenti locali letti : 1
Segmenti locali letti : 1
Segmenti locali letti : 1
Segmenti locali letti : 1
Segmenti locali letti : 1
Segmenti locali letti : 1
Segmenti locali letti : 1
Segmenti locali letti : 1
Segmenti locali letti : 18
Segmenti locali letti : 1
Segmenti locali letti : 1
Segmenti locali letti : 1
Segmenti locali letti : 1
Segmenti locali letti : 1
Segmenti locali letti : 1
Segmenti locali letti : 26
 ...     ANALIZZO  .......................................
- segmenti effettivi : 26
Segmenti locali letti : 44
 ...     ANALIZZO  .......................................
- segmenti effettivi : 42
Segmenti locali letti : 26
 ...     ANALIZZO  .......................................
- segmenti effettivi : 26
Segmenti locali letti : 1
Segmenti locali letti : 18
Segmenti locali letti : 42
 ...     ANALIZZO  .......................................
- segmenti effettivi : 39
Segmenti locali letti : 62
 ...     ANALIZZO  .......................................
- segmenti effettivi : 59
Segmenti locali letti : 9
Segmenti locali letti : 91
 ...     ANALIZZO  .......................................
- segmenti effettivi : 86
Segmenti locali letti : 46
 ...     ANALIZZO  .......................................
- segmenti effettivi : 43
Segmenti locali letti : 1
Segmenti locali letti : 63
 ...     ANALIZZO  .......................................
- segmenti effettivi : 61
Segmenti locali letti : 1
Segmenti locali letti : 24
 ...     ANALIZZO  .......................................
- segmenti effettivi : 24
Segmenti locali letti : 45
 ...     ANALIZZO  .......................................
- segmenti effettivi : 41
Segmenti locali letti : 48
 ...     ANALIZZO  .......................................
- segmenti effettivi : 46
Segmenti locali letti : 49
 ...     ANALIZZO  .......................................
- segmenti effettivi : 46
Segmenti locali letti : 31
 ...     ANALIZZO  .......................................
- segmenti effettivi : 28
Segmenti locali letti : 1
Segmenti locali letti : 67
 ...     ANALIZZO  .......................................
- segmenti effettivi : 62
Segmenti locali letti : 1
Segmenti locali letti : 2
Segmenti locali letti : 1
Segmenti locali letti : 77
 ...     ANALIZZO  .......................................
- segmenti effettivi : 74
Segmenti locali letti : 44
 ...     ANALIZZO  .......................................
- segmenti effettivi : 43
Segmenti locali letti : 76
 ...     ANALIZZO  .......................................
- segmenti effettivi : 73
Segmenti locali letti : 1
Segmenti locali letti : 1
Segmenti locali letti : 16
Segmenti locali letti : 21
 ...     ANALIZZO  .......................................
- segmenti effettivi : 21
Segmenti locali letti : 10
Segmenti locali letti : 1
Segmenti locali letti : 1
Segmenti locali letti : 1
Segmenti locali letti : 1
Segmenti locali letti : 1
Segmenti locali letti : 1
Segmenti locali letti : 1
Segmenti locali letti : 1
Segmenti locali letti : 1
Segmenti locali letti : 1
Segmenti locali letti : 1
Segmenti locali letti : 38
 ...     ANALIZZO  .......................................
- segmenti effettivi : 35
Segmenti locali letti : 19
Segmenti locali letti : 1
Segmenti locali letti : 1
Segmenti locali letti : 23
 ...     ANALIZZO  .......................................
- segmenti effettivi : 23
Segmenti locali letti : 1
Segmenti locali letti : 1
Segmenti locali letti : 1
Segmenti locali letti : 1
Segmenti locali letti : 34
 ...     ANALIZZO  .......................................
- segmenti effettivi : 31
Segmenti locali letti : 20
Segmenti locali letti : 33
 ...     ANALIZZO  .......................................
- segmenti effettivi : 33
Segmenti locali letti : 53
 ...     ANALIZZO  .......................................
- segmenti effettivi : 49
Segmenti locali letti : 1
Segmenti locali letti : 1
Segmenti locali letti : 1
Segmenti locali letti : 55
 ...     ANALIZZO  .......................................
- segmenti effettivi : 52
Segmenti locali letti : 2
Segmenti locali letti : 40
 ...     ANALIZZO  .......................................
- segmenti effettivi : 37
Segmenti locali letti : 14
Segmenti locali letti : 47
 ...     ANALIZZO  .......................................
- segmenti effettivi : 44
Segmenti locali letti : 1
Segmenti locali letti : 59
 ...     ANALIZZO  .......................................
- segmenti effettivi : 55
Segmenti locali letti : 1
Segmenti locali letti : 1
Segmenti locali letti : 22
 ...     ANALIZZO  .......................................
- segmenti effettivi : 22
Segmenti locali letti : 19
Segmenti locali letti : 1
Segmenti locali letti : 1
Segmenti locali letti : 58
 ...     ANALIZZO  .......................................
- segmenti effettivi : 57
Segmenti locali letti : 64
 ...     ANALIZZO  .......................................
- segmenti effettivi : 61
Segmenti locali letti : 57
 ...     ANALIZZO  .......................................
- segmenti effettivi : 54
Segmenti locali letti : 35
 ...     ANALIZZO  .......................................
- segmenti effettivi : 34
Segmenti locali letti : 6
Segmenti locali letti : 34
 ...     ANALIZZO  .......................................
- segmenti effettivi : 34
Segmenti locali letti : 20
Segmenti locali letti : 295
 ...     ANALIZZO  .......................................
- segmenti effettivi : 295
Segmenti locali letti : 83
 ...     ANALIZZO  .......................................
- segmenti effettivi : 76
Segmenti locali letti : 69
 ...     ANALIZZO  .......................................
- segmenti effettivi : 66
Segmenti locali letti : 12
Segmenti locali letti : 1
Segmenti locali letti : 33
 ...     ANALIZZO  .......................................
- segmenti effettivi : 31
Segmenti locali letti : 38
 ...     ANALIZZO  .......................................
- segmenti effettivi : 35
Segmenti locali letti : 65
 ...     ANALIZZO  .......................................
- segmenti effettivi : 61
Segmenti locali letti : 50
 ...     ANALIZZO  .......................................
- segmenti effettivi : 47
Segmenti locali letti : 44
 ...     ANALIZZO  .......................................
- segmenti effettivi : 43
Segmenti locali letti : 4
Segmenti locali letti : 62
 ...     ANALIZZO  .......................................
- segmenti effettivi : 58
Segmenti locali letti : 36
 ...     ANALIZZO  .......................................
- segmenti effettivi : 33
Segmenti locali letti : 61
 ...     ANALIZZO  .......................................
- segmenti effettivi : 58
Segmenti locali letti : 1
Segmenti locali letti : 37
 ...     ANALIZZO  .......................................
- segmenti effettivi : 37
Segmenti locali letti : 2
Segmenti locali letti : 1
Segmenti locali letti : 17
Segmenti locali letti : 1
Segmenti locali letti : 1
Segmenti locali letti : 1
Segmenti locali letti : 16
Segmenti locali letti : 8
Segmenti locali letti : 1
Segmenti locali letti : 48
 ...     ANALIZZO  .......................................
- segmenti effettivi : 46
Segmenti locali letti : 1
Segmenti locali letti : 47
 ...     ANALIZZO  .......................................
- segmenti effettivi : 47
Segmenti locali letti : 38
 ...     ANALIZZO  .......................................
- segmenti effettivi : 37
Segmenti locali letti : 1
Segmenti locali letti : 80
 ...     ANALIZZO  .......................................
- segmenti effettivi : 75
Segmenti locali letti : 1
Segmenti locali letti : 1
Segmenti locali letti : 1
Segmenti locali letti : 2
Segmenti locali letti : 1
Segmenti locali letti : 17
Segmenti locali letti : 57
 ...     ANALIZZO  .......................................
- segmenti effettivi : 55
Segmenti locali letti : 74
 ...     ANALIZZO  .......................................
- segmenti effettivi : 66
Segmenti locali letti : 51
 ...     ANALIZZO  .......................................
- segmenti effettivi : 50
Segmenti locali letti : 61
 ...     ANALIZZO  .......................................
- segmenti effettivi : 58
Segmenti locali letti : 1
Segmenti locali letti : 1
Segmenti locali letti : 1
Segmenti locali letti : 1
Segmenti locali letti : 55
 ...     ANALIZZO  .......................................
- segmenti effettivi : 52
Segmenti locali letti : 17
Segmenti locali letti : 1
Segmenti locali letti : 19
Segmenti locali letti : 16
Segmenti locali letti : 15
Segmenti locali letti : 15
Segmenti locali letti : 1
Segmenti locali letti : 45
 ...     ANALIZZO  .......................................
- segmenti effettivi : 43
Segmenti locali letti : 3
Segmenti locali letti : 40
 ...     ANALIZZO  .......................................
- segmenti effettivi : 38
Segmenti locali letti : 1
Segmenti locali letti : 16
Segmenti locali letti : 1
Segmenti locali letti : 1
Segmenti locali letti : 1
Segmenti locali letti : 61
 ...     ANALIZZO  .......................................
- segmenti effettivi : 58
Segmenti locali letti : 2
Segmenti locali letti : 45
 ...     ANALIZZO  .......................................
- segmenti effettivi : 43
Segmenti locali letti : 1
Segmenti locali letti : 2
Segmenti locali letti : 16
Segmenti locali letti : 17
Segmenti locali letti : 17
Segmenti locali letti : 19
Segmenti locali letti : 19
Segmenti locali letti : 69
 ...     ANALIZZO  .......................................
- segmenti effettivi : 66
Segmenti locali letti : 65
 ...     ANALIZZO  .......................................
- segmenti effettivi : 63
Segmenti locali letti : 37
 ...     ANALIZZO  .......................................
- segmenti effettivi : 37
Segmenti locali letti : 1
Segmenti locali letti : 79
 ...     ANALIZZO  .......................................
- segmenti effettivi : 71
Segmenti locali letti : 16
Segmenti locali letti : 42
 ...     ANALIZZO  .......................................
- segmenti effettivi : 40
Segmenti locali letti : 50
 ...     ANALIZZO  .......................................
- segmenti effettivi : 46
Segmenti locali letti : 1
Segmenti locali letti : 1
Segmenti locali letti : 48
 ...     ANALIZZO  .......................................
- segmenti effettivi : 44
Segmenti locali letti : 16
Segmenti locali letti : 1
Segmenti locali letti : 47
 ...     ANALIZZO  .......................................
- segmenti effettivi : 43
Segmenti locali letti : 1
Segmenti locali letti : 1
Segmenti locali letti : 1
Segmenti locali letti : 1
Segmenti locali letti : 1
Segmenti locali letti : 1
Segmenti locali letti : 2
Segmenti locali letti : 8
Segmenti locali letti : 37
 ...     ANALIZZO  .......................................
- segmenti effettivi : 37
Segmenti locali letti : 43
 ...     ANALIZZO  .......................................
- segmenti effettivi : 39
Segmenti locali letti : 1
Segmenti locali letti : 1
Segmenti locali letti : 1
