A0A077LZG3
A0A077X3C7
A0A074LN42
A0A077ZIH0
A0A074Z4C5
A0A075MMF6
A0A024HL15
A0A075MPD3
A0A087SKI8
A0A090MYR1
A0A088T259
A0A058ZIQ8
A0A077MG90
A0A061CZG9
A0A088QXQ4
A0A091EMU3
A0A094AV48
A0A060RZD6
A0A087BPS2
A0A060XIN6
A0A061H9U6
A0A060UUZ7
A0A066VMM9
A0A061DCV2
A0A017T7K1
A0A014QDJ7
A0A077ZGW8
A0A081PTD7
A0A061AC63
A0A078GJ37
A0A061QZS1
A0A087HRY4
A0A087SBY1
A0A093ZE14
A0A075TYQ0
A0A068SEG9
A0A075R8Q9
A0A076FMQ5
A0A061QKZ5
A0A077AXS2
A0A078GIJ5
A0A059KGE6
A0A078H1Z4
A0A062XVG0
A0A024TJ45
A0A078AG78
A0A086PXD6
A0A066W7U0
A0A087SI36
A0A085MIR4
A0A068RY45
A0A073AZG0
A0A072VRH3
A0A031IGS0
A0A076MTV8
A0A010RVR3
A0A074ZAV2
A0A091DSU0
A0A087H791
A0A068YYJ1
A0A067NAF8
A0A074RYG2
A0A084JIR1
A0A061H4H4
A0A061RY02
A0A062XZA2
A0A060PUD8
A0A061NN85
A0A087BZB2
A0A059Y8M0
A0A062V2D0
A0A017S1C8
A0A060Y4Y0
A0A077WGY2
A0A087H7D5
A0A061SC95
A0A080ZEQ9
A0A081UT36
A0A090IGP2
A0A060T362
A0A077X1J6
A0A017TDE0
A0A078MCU1
A0A060JKV5
A0A078GDU5
A0A024UE03
A0A069T019
A0A063YJS4
A0A076I8S8
A0A059LRB9
A0A067QLZ3
A0A090K883
A0A017T793
A0A086T096
A0A058ZDV5
A0A068RG13
A0A072NZE4
A0A086CGH0
A0A067MWV3
A0A073L1U1
