#MC N_sequences average_length std_deviation_AL
0 18 327.778 11.7405
3 19 579.632 88.3588
7 9 29.8889 3.28107
8 19 107.211 14.8593
9 3 329.333 30.0259
10 50 76.56 8.0004
11 6 128.5 8.93961
12 4 92 9.19239
13 3 211 1.63299
25 5 118.6 7.14423
34 9 313.111 22.3082
